Tidy Sports Analytics, Part 3: ggplot2 | Jake Thompson
…
    )
  ) %>%
  gather(key = "team_unit", value = "team", offense:defense) %>%
  mutate(
    play_success = case_when(
      team_unit == "defense" ~ !play_success,
      TRUE ~ play_success
    )
  ) %>%
  group_by(team, team_unit) %>%
  summarize(success_rate = mean(play_success, na.rm = TRUE)) %>%
  spread(key = team_unit, value = success_rate) %>%
  ungroup()
success
#> # A tibble: 32 x 3
#>     team   defense   offense
#>  * <chr>     <dbl>     <dbl>
#>  1   ARI 0.5786228 0.4579350
#>  2   ATL 0.5122349 0.4995587
#>  3   BAL 0.5800416 0.4103053
#>  4   BUF 0.5530612 0.4643226
#>  5   CAR 0.5420466 0.4197044
#>  6   CHI 0.5497436 0.4606383
#>  7   CIN 0.5582090 0.4638256
#>  8   CLE 0.5456292 0.4089422
#>  9   DAL 0.5212766 0.5110048
#> 10   DEN 0.5936293 0.4234694
#> # ... with 22 more rows
…
Figure 2: Scatterplot with linear best fit line

With ggplot, it’s easy to add extra elements to customize the specific pieces needed for the visualization. Each geom also comes with its own options. For example in geom_smooth, I’ve specified the "lm" smoothing method. We can also specify groupings in the plots. For this, the data will need to be in long format, which can be accomplished using the gather function as we did in part two.

success <- gather(success, key = "team_unit", value = "success_rate",
  defense:offense)
success
#> # A tibble: 64 x 3
#>     team team_unit success_rate
#>    <chr>     <chr>        <dbl>
#>  1   ARI   defense    0.5786228
#>  2   ATL   defense    0.5122349
#>  3   BAL   defense    0.5800416
#>  4   BUF   defense    0.5530612
#>  5   CAR   defense    0.5420466
#>  6   CHI   defense    0.5497436
#>  7   CIN   defense    0.5582090
#>  8   CLE   defense    0.5456292
#>  9   DAL   defense    0.5212766
#> 10   DEN   defense    0.5936293
#> # ... with 54 more rows
…
