…
full_pbp <- bind_rows(list(half_1, half_2))
full_pbp

#> # A tibble: 336 x 8
#>    period minute second min_played min_remain away_score home_score
#>     <chr>  <dbl>  <dbl>      <dbl>      <dbl>      <dbl>      <dbl>
#>  1     H1     20      0  0.0000000   40.00000          0          0
#>  2     H1     19     50  0.1666667   39.83333          0          0
#>  3     H1     19     50  0.1666667   39.83333          0          0
#>  4     H1     19     43  0.2833333   39.71667          0          2
#>  5     H1     19     27  0.5500000   39.45000          0          2
#>  6     H1     19     27  0.5500000   39.45000          0          2
#>  7     H1     19     12  0.8000000   39.20000          0          2
#>  8     H1     19     12  0.8000000   39.20000          0          2
#>  9     H1     18     48  1.2000000   38.80000          2          2
#> 10     H1     18     33  1.4500000   38.55000          2          2
#> # ... with 326 more rows, and 1 more variables: play <chr>
…
Plotting the Win Probabilities

The first thing we have to do is calculate the mean and standard deviation of the distribution at every second of the game, and the corresponding win probability.

full_game <- full_game %>%
  mutate(
    away_margin = away - home,
    mean = (-15 * (min_remain / 40)) + (away_margin * (min_played / 40)),
    sd = 11.36 / sqrt(40 / min_remain),
    home_winprob = pnorm(0, mean = mean, sd = sd, lower.tail = TRUE),
    away_winprob = 1 - home_winprob
  )
full_game
#> # A tibble: 2,401 x 11
#>    minute second min_remain min_played  home  away away_margin      mean
#>     <int>  <int>      <dbl>      <dbl> <dbl> <dbl>       <dbl>     <dbl>
#>  1     40      0   40.00000 0.00000000     0     0           0 -15.00000
#>  2     39     59   39.98333 0.01666667     0     0           0 -14.99375
#>  3     39     58   39.96667 0.03333333     0     0           0 -14.98750
#>  4     39     57   39.95000 0.05000000     0     0           0 -14.98125
#>  5     39     56   39.93333 0.06666667     0     0           0 -14.97500
#>  6     39     55   39.91667 0.08333333     0     0           0 -14.96875
#>  7     39     54   39.90000 0.10000000     0     0           0 -14.96250
#>  8     39     53   39.88333 0.11666667     0     0           0 -14.95625
#>  9     39     52   39.86667 0.13333333     0     0           0 -14.95000
#> 10     39     51   39.85000 0.15000000     0     0           0 -14.94375
#> # ... with 2,391 more rows, and 3 more variables: sd <dbl>,
#> #   home_winprob <dbl>, away_winprob <dbl>
…
