Recreating the Datasaurus Dozen Using tweenr and ggplot2 | Jake Thompson
…
Despite looking very different, all of these datasets have the same summary statistics to two decimal places. You can download the datasets, get details about the project, and read the whole paper by Justin Matejka and George Fitzmaurice here. In this post, I’ll show how we can recreate the GIF from the above tweet using tweenr and gganimate.

Creating the plots

The first step is to read in the data. The data has three variables: the dataset name, x, and y. I’ll define dataset as a factor so that the datasets will appear in the correct order in the animation.

library(tidyverse)
library(forcats)

datasaurus <- read_table2("datafiles/DatasaurusDozen.tsv",
  col_names = TRUE, col_types = "cnn") %>%
  mutate(dataset = as_factor(dataset))
datasaurus
#> # A tibble: 1,846 x 3
#>    dataset       x       y
#>     <fctr>   <dbl>   <dbl>
#>  1    dino 55.3846 97.1795
#>  2    dino 51.5385 96.0256
#>  3    dino 46.1538 94.4872
#>  4    dino 42.8205 91.4103
#>  5    dino 40.7692 88.3333
#>  6    dino 38.7179 84.8718
#>  7    dino 35.6410 79.8718
#>  8    dino 33.0769 77.5641
#>  9    dino 28.9744 74.4872
#> 10    dino 26.1538 71.4103
#> # ... with 1,836 more rows
…
I’ve also added the dino dataset again at the bottom so that the GIF with start and end with that dataset, making it seamless. I’ll then use tween_states, sending it the list of dataframes, and specifying the length of each state and transitions (I had to play around a bit with the numbers until I was happy with the final animation).

tween_datasaurus <- tween_states(n_datasaurus$data, tweenlength = 1,
  statelength = 0.5, ease = "sine-out", nframe = 200) %>%
  as.tibble()
tween_datasaurus
#> # A tibble: 28,400 x 3
#>          x       y .frame
#>      <dbl>   <dbl>  <int>
#>  1 55.3846 97.1795      1
#>  2 51.5385 96.0256      1
#>  3 46.1538 94.4872      1
#>  4 42.8205 91.4103      1
#>  5 40.7692 88.3333      1
#>  6 38.7179 84.8718      1
#>  7 35.6410 79.8718      1
#>  8 33.0769 77.5641      1
#>  9 28.9744 74.4872      1
#> 10 26.1538 71.4103      1
#> # ... with 28,390 more rows
…
