Tidy Sports Analytics, Part 2: tidyr | Jake Thompson
…
Both code chunks read in the data and do some initial manipulations to calculate success rate using the dplyr package (see part one of this series for a more in depth explanation of how these functions work). In the first chunk, it is difficult to easily see what is going on. You have to read inside-out in order to see that I first select some variables from nfl_pbp and then filter. However, in the second chunk, it is very clear that I start with the nfl_pbp data, select some variables, and then filter to only passing and rushing plays.

The pipe works by passing the output of the function on the left as the first argument to the function on the right. So a %>% f(x, y) %>% g(z) is interpreted by the computer as g(f(a, x, y), z). These two statements are equivalent, but in the first, it is much easier to see that a is pass to function f(), which also has arguments x and y, and then the output of that is pass to function g(), which also has argument z. In the tidyverse, the first argument is always the data frame that the operation is being performed on, and a data frame with the specified operation performed is returned. Thus, all of the tidyverse functions are compatible with the %>% operator.

Throughout the rest of this post, and the following posts in this series, we’ll use the %>% to make the code more readable and straight forward.

tidyr

In this post, I’ll be using the tidyr package to calculate the success rate of the offense and defense of each team. Let’s remind ourselves what the data looks like.

success
#> # A tibble: 34,149 x 8
#>    game_id play_id offense defense play_type  down to_go gained
#>      <int>   <int>   <chr>   <chr>     <chr> <int> <int>  <int>
#>  1    4257  697182     DEN     CAR      PASS     1    10     11
#>  2    4257  697183     DEN     CAR      PASS     1    10      0
#>  3    4257  697184     DEN     CAR      PASS     2    10      0
#>  4    4257  697185     DEN     CAR      PASS     3    10     12
#>  5    4257  697186     DEN     CAR      PASS     1    10      5
#>  6    4257  697187     DEN     CAR      RUSH     2     5     13
#>  7    4257  697188     DEN     CAR      RUSH     1    10      5
#>  8    4257  697189     DEN     CAR      RUSH     2     5      0
#>  9    4257  697190     CAR     DEN      RUSH     1    10      6
#> 10    4257  697191     CAR     DEN      RUSH     2     4     11
#> # ... with 34,139 more rows
…
success <- success %>%
  mutate(
    needed = case_when(
      down == 1 ~ to_go * 0.45,
      down == 2 ~ to_go * 0.60,
      TRUE ~ to_go * 1.00
    ),
    play_success = case_when(
      gained >= needed ~ TRUE,
      gained < needed ~ FALSE
    )
  )
success
#> # A tibble: 34,149 x 10
#>    game_id play_id offense defense play_type  down to_go gained needed
#>      <int>   <int>   <chr>   <chr>     <chr> <int> <int>  <int>  <dbl>
#>  1    4257  697182     DEN     CAR      PASS     1    10     11    4.5
#>  2    4257  697183     DEN     CAR      PASS     1    10      0    4.5
#>  3    4257  697184     DEN     CAR      PASS     2    10      0    6.0
#>  4    4257  697185     DEN     CAR      PASS     3    10     12   10.0
#>  5    4257  697186     DEN     CAR      PASS     1    10      5    4.5
#>  6    4257  697187     DEN     CAR      RUSH     2     5     13    3.0
#>  7    4257  697188     DEN     CAR      RUSH     1    10      5    4.5
#>  8    4257  697189     DEN     CAR      RUSH     2     5      0    3.0
#>  9    4257  697190     CAR     DEN      RUSH     1    10      6    4.5
#> 10    4257  697191     CAR     DEN      RUSH     2     4     11    2.4
#> # ... with 34,139 more rows, and 1 more variables: play_success <lgl>

In order to calculate the success rate for each team and unit combination, we first need to gather the unit information into key-value pairs using the gather function.

success %>%
  gather(key = "team_unit", value = "team", offense:defense)
#> # A tibble: 68,298 x 10
#>    game_id play_id play_type  down to_go gained needed play_success
#>      <int>   <int>     <chr> <int> <int>  <int>  <dbl>        <lgl>
#>  1    4257  697182      PASS     1    10     11    4.5         TRUE
#>  2    4257  697183      PASS     1    10      0    4.5        FALSE
#>  3    4257  697184      PASS     2    10      0    6.0        FALSE
#>  4    4257  697185      PASS     3    10     12   10.0         TRUE
#>  5    4257  697186      PASS     1    10      5    4.5         TRUE
#>  6    4257  697187      RUSH     2     5     13    3.0         TRUE
#>  7    4257  697188      RUSH     1    10      5    4.5         TRUE
#>  8    4257  697189      RUSH     2     5      0    3.0        FALSE
#>  9    4257  697190      RUSH     1    10      6    4.5         TRUE
#> 10    4257  697191      RUSH     2     4     11    2.4         TRUE
#> # ... with 68,288 more rows, and 2 more variables: team_unit <chr>,
#> #   team <chr>

When using the gather function, the column names of the collapsed columns become the “key”, and the values are the “value”. In the function, I chose to name the column of keys team_unit and the column of values team. I then specified which columns should be collapsed. Each column can be named individually (i.e., c(offense, defense)), or you can specify all columns in a range (i.e., offense:defense).

Next, as I noted last time, play success is calculated such that I measures whether the play was a success for the offense. This means that if a play was successful for an offense it was unsuccessful for the defense, and vice versa. Therefore we need to reverse the decision of whether or not a play was successful, if the unit is the defense.

success %>%
  gather(key = "team_unit", value = "team", offense:defense) %>%
  mutate(
    play_success = case_when(
      team_unit == "defense" ~ !play_success,
      TRUE ~ play_success
    )
  )
#> # A tibble: 68,298 x 10
#>    game_id play_id play_type  down to_go gained needed play_success
#>      <int>   <int>     <chr> <int> <int>  <int>  <dbl>        <lgl>
#>  1    4257  697182      PASS     1    10     11    4.5         TRUE
#>  2    4257  697183      PASS     1    10      0    4.5        FALSE
#>  3    4257  697184      PASS     2    10      0    6.0        FALSE
#>  4    4257  697185      PASS     3    10     12   10.0         TRUE
#>  5    4257  697186      PASS     1    10      5    4.5         TRUE
#>  6    4257  697187      RUSH     2     5     13    3.0         TRUE
#>  7    4257  697188      RUSH     1    10      5    4.5         TRUE
#>  8    4257  697189      RUSH     2     5      0    3.0        FALSE
#>  9    4257  697190      RUSH     1    10      6    4.5         TRUE
#> 10    4257  697191      RUSH     2     4     11    2.4         TRUE
#> # ... with 68,288 more rows, and 2 more variables: team_unit <chr>,
#> #   team <chr>

Here, I’m saying if the team_unit for the observation is equal to defense, play_success is equal to the opposite of the current value of play success. If play_success is not equal to defense, then the value is unchanged. We can now group by team and team_unit to calculate the success rate of each offense and defense.

success %>%
  gather(key = "team_unit", value = "team", offense:defense) %>%
  mutate(
    play_success = case_when(
      team_unit == "defense" ~ !play_success,
      TRUE ~ play_success
    )
  ) %>%
  group_by(team, team_unit) %>%
  summarize(success_rate = mean(play_success, na.rm = TRUE))
#> # A tibble: 64 x 3
#> # Groups:   team [?]
#>     team team_unit success_rate
#>    <chr>     <chr>        <dbl>
#>  1   ARI   defense    0.5786228
#>  2   ARI   offense    0.4579350
#>  3   ATL   defense    0.5122349
#>  4   ATL   offense    0.4995587
#>  5   BAL   defense    0.5800416
#>  6   BAL   offense    0.4103053
#>  7   BUF   defense    0.5530612
#>  8   BUF   offense    0.4643226
#>  9   CAR   defense    0.5420466
#> 10   CAR   offense    0.4197044
#> # ... with 54 more rows

Finally, I want to spread the data frame back out so there is only one row per team. This is where the spread function comes into play.

success %>%
  gather(key = "team_unit", value = "team", offense:defense) %>%
  mutate(
    play_success = case_when(
      team_unit == "defense" ~ !play_success,
      TRUE ~ play_success
    )
  ) %>%
  group_by(team, team_unit) %>%
  summarize(success_rate = mean(play_success, na.rm = TRUE)) %>%
  spread(key = team_unit, value = success_rate)
#> # A tibble: 32 x 3
#> # Groups:   team [32]
#>     team   defense   offense
#>  * <chr>     <dbl>     <dbl>
#>  1   ARI 0.5786228 0.4579350
#>  2   ATL 0.5122349 0.4995587
#>  3   BAL 0.5800416 0.4103053
#>  4   BUF 0.5530612 0.4643226
#>  5   CAR 0.5420466 0.4197044
#>  6   CHI 0.5497436 0.4606383
#>  7   CIN 0.5582090 0.4638256
#>  8   CLE 0.5456292 0.4089422
#>  9   DAL 0.5212766 0.5110048
#> 10   DEN 0.5936293 0.4234694
#> # ... with 22 more rows
…
